ID	Total	Discounts	Shipping	Profit	%
797	115,00	0,00	0,00	115,00	=(E2/B2)*100
796	492,00	0,00	0,00	429,00	=(E3/B3)*100
794	188,00	0,00	0,00	188,00	=(E4/B4)*100
793	200,00	0,00	0,00	200,00	=(E5/B5)*100
792	120,00	0,00	0,00	120,00	=(E6/B6)*100
790	98,00	0,00	0,00	98,00	=(E7/B7)*100
785	130,00	0,00	0,00	130,00	=(E8/B8)*100
781	269,00	0,00	0,00	269,00	=(E9/B9)*100
780	198,00	0,00	0,00	106,00	=(E10/B10)*100
779	555,00	0,00	0,00	531,00	=(E11/B11)*100
778	1239,00	0,00	0,00	1079,00	=(E12/B12)*100
777	115,00	0,00	0,00	115,00	=(E13/B13)*100
776	210,00	0,00	0,00	210,00	=(E14/B14)*100
775	818,00	0,00	0,00	766,00	=(E15/B15)*100
773	135,00	0,00	0,00	114,00	=(E16/B16)*100
772	641,00	0,00	0,00	447,00	=(E17/B17)*100
771	162,00	0,00	0,00	142,00	=(E18/B18)*100
770	768,00	0,00	0,00	608,00	=(E19/B19)*100
769	421,00	0,00	0,00	421,00	=(E20/B20)*100
768	125,00	0,00	0,00	125,00	=(E21/B21)*100
767	140,00	0,00	0,00	140,00	=(E22/B22)*100
766	350,00	0,00	0,00	271,00	=(E23/B23)*100
764	110,00	0,00	0,00	110,00	=(E24/B24)*100
763	310,00	0,00	0,00	310,00	=(E25/B25)*100
762	150,00	0,00	0,00	150,00	=(E26/B26)*100
761	108,00	0,00	0,00	108,00	=(E27/B27)*100
759	500,00	0,00	0,00	397,00	=(E28/B28)*100
758	63,00	0,00	0,00	28,00	=(E29/B29)*100
757	255,00	0,00	0,00	248,00	=(E30/B30)*100
756	640,00	0,00	0,00	613,00	=(E31/B31)*100
753	230,00	0,00	0,00	230,00	=(E32/B32)*100
751	120,00	0,00	0,00	101,00	=(E33/B33)*100
748	45,00	0,00	0,00	18,00	=(E34/B34)*100
747	95,00	0,00	0,00	95,00	=(E35/B35)*100
746	194,00	0,00	0,00	79,00	=(E36/B36)*100
742	389,00	0,00	0,00	228,00	=(E37/B37)*100
741	210,00	0,00	0,00	159,00	=(E38/B38)*100
740	3161,00	0,00	0,00	2799,00	=(E39/B39)*100
739	495,00	0,00	0,00	446,00	=(E40/B40)*100
738	320,00	0,00	0,00	320,00	=(E41/B41)*100

Total	=SUM(B2:B41)	=SUM(C2:C41)	=SUM(D2:D41)	=SUM(E2:E41)	=AVERAGE(F2:F41)
